{
  "login": "https://www.srisaimaharajehealth.com/api/user/login",
  "forgotPwd": "https://www.srisaimaharajehealth.com/api/user/forgotPassword",
  "retriveHospital": "https://www.srisaimaharajehealth.com/api/hospital/retrieve",
  "saveHospital": "https://www.srisaimaharajehealth.com/api/hospital/create",
  "updateHospital": "https://www.srisaimaharajehealth.com/api/hospital/update/",
  "savePatient": "https://www.srisaimaharajehealth.com/api/patient/savePatient",
  "retrivePatient": "https://www.srisaimaharajehealth.com/api/hospital/fetchbed",
  "saveLab": "https://www.srisaimaharajehealth.com/api/patient/saveLab",
  "getLab": "https://www.srisaimaharajehealth.com/api/patient/getLab",
  "fetchLocations":"https://www.srisaimaharajehealth.com/api/hospital/fetchHospital",
  "fetchMenus":"https://www.srisaimaharajehealth.com/api/hospital/getStateHospitalMenu",
  "saveCriticalCareInfo":"https://www.srisaimaharajehealth.com/api/patient/savecriticalcare",
  "updateCriticalCareInfo":"https://www.srisaimaharajehealth.com/api/hospital/update/",
  "retriveCriticalCareInfo":"https://www.srisaimaharajehealth.com/api/patient/retrievecriticalcare",
  "saveDrug":"https://www.srisaimaharajehealth.com/api/patient/saveDrug",
  "getDrug":"https://www.srisaimaharajehealth.com/api/patient/getDrug",
  "stopDrug":"https://www.srisaimaharajehealth.com/api/patient/stopDrug",
  "saveUser":"https://www.srisaimaharajehealth.com/api/usermanagement/saveUser",
  "getUsers":"https://www.srisaimaharajehealth.com/api/usermanagement/getUsers",
  "saveRole":"https://www.srisaimaharajehealth.com/api/role/saveRole",
  "getRoles":"https://www.srisaimaharajehealth.com/api/role/getRoles",
  "nameSearch":"https://www.srisaimaharajehealth.com/api/common/quicksearch",
  "retrieveCCHistory":"https://www.srisaimaharajehealth.com/api/patient/retrieveCCHistory",
  "updateHosp":"https://www.srisaimaharajehealth.com/api/hospital/update",
  "getRoleMenu" :"https://www.srisaimaharajehealth.com/api/role/getRoleMenu",
   "dischargePatient":"https://www.srisaimaharajehealth.com/api/patient/dischargePatient",
   "fileUploadUrl":"https://www.srisaimaharajehealth.com/api/uploadfile/upload",
   "fileDelete":"https://www.srisaimaharajehealth.com/api/uploadfile/delete",
   "changePwdUrl": "https://www.srisaimaharajehealth.com/api/user/changePwd",
   "fetchLabTrendingData":"https://www.srisaimaharajehealth.com/api/patient/trendingdata",
   "fetchMrCodes": "https://www.srisaimaharajehealth.com/api/hospital/fetchPatintMRForHospt",
   "checkAuthenticate": "https://www.srisaimaharajehealth.com/api/auth/authenticate",
   "fetchUser": "https://www.srisaimaharajehealth.com/api/usermanagement/getUser",
   "getNewAuthKey" : "https://www.srisaimaharajehealth.com/api/auth/renew",
   "getPatientData": "https://www.srisaimaharajehealth.com/api/auth/getpatientdata/",
   "getSpocData": "https://www.srisaimaharajehealth.com/api/patient/getSpocData/",
    "saveSpoc": "https://www.srisaimaharajehealth.com/api/patient/saveSpoc",
   "fetchNotofication": "https://www.srisaimaharajehealth.com/api/usermanagement/getNotifications",
   "clearNotification": "https://www.srisaimaharajehealth.com/api/usermanagement/getNotifications",
   "updateNotification": "https://www.srisaimaharajehealth.com/api/usermanagement/updateNotification",
   "sendPrescription": "https://www.srisaimaharajehealth.com/api/patient/sendOPDEprescriptionmail",
   "fetchOpdHistoryView": "https://www.srisaimaharajehealth.com/api/patient/retrieveOpdHistory"
}

